{
	"colors": {
		"Black": 0,
		"Maroon": 1,
		"Green": 2,
		"Olive": 3,
		"Navy": 4,
		"Purple": 5,
		"Teal": 6,
		"Silver": 7,
		"Grey": 8,
		"Red": 9,
		"Lime": 10,
		"Yellow": 11,
		"Blue": 12,
		"Fuchsia": 13,
		"Aqua": 14,
		"White": 15,

		"Grey0": 16,
		"NavyBlue": 17,
		"DarkBlue": 18,
		"Blue3": 19,
		"Blue3": 20,
		"Blue1": 21,
		"DarkGreen": 22,
		"DeepSkyBlue4": 23,
		"DeepSkyBlue4": 24,
		"DeepSkyBlue4": 25,
		"DodgerBlue3": 26,
		"DodgerBlue2": 27,
		"Green4": 28,
		"SpringGreen4": 29,
		"Turquoise4": 30,
		"DeepSkyBlue3": 31,
		"DeepSkyBlue3": 32,
		"DodgerBlue1": 33,
		"Green3": 34,
		"SpringGreen3": 35,
		"DarkCyan": 36,
		"LightSeaGreen": 37,
		"DeepSkyBlue2": 38,
		"DeepSkyBlue1": 39,
		"Green3": 40,
		"SpringGreen3": 41,
		"SpringGreen2": 42,
		"Cyan3": 43,
		"DarkTurquoise": 44,
		"Turquoise2": 45,
		"Green1": 46,
		"SpringGreen2": 47,
		"SpringGreen1": 48,
		"MediumSpringGreen": 49,
		"Cyan2": 50,
		"Cyan1": 51,
		"DarkRed": 52,
		"DeepPink4": 53,
		"Purple4": 54,
		"Purple4": 55,
		"Purple3": 56,
		"BlueViolet": 57,
		"Orange4": 58,
		"Grey37": 59,
		"MediumPurple4": 60,
		"SlateBlue3": 61,
		"SlateBlue3": 62,
		"RoyalBlue1": 63,
		"Chartreuse4": 64,
		"DarkSeaGreen4": 65,
		"PaleTurquoise4": 66,
		"SteelBlue": 67,
		"SteelBlue3": 68,
		"CornflowerBlue": 69,
		"Chartreuse3": 70,
		"DarkSeaGreen4": 71,
		"CadetBlue": 72,
		"CadetBlue": 73,
		"SkyBlue3": 74,
		"SteelBlue1": 75,
		"Chartreuse3": 76,
		"PaleGreen3": 77,
		"SeaGreen3": 78,
		"Aquamarine3": 79,
		"MediumTurquoise": 80,
		"SteelBlue1": 81,
		"Chartreuse2": 82,
		"SeaGreen2": 83,
		"SeaGreen1": 84,
		"SeaGreen1": 85,
		"Aquamarine1": 86,
		"DarkSlateGray2": 87,
		"DarkRed": 88,
		"DeepPink4": 89,
		"DarkMagenta": 90,
		"DarkMagenta": 91,
		"DarkViolet": 92,
		"Purple": 93,
		"Orange4": 94,
		"LightPink4": 95,
		"Plum4": 96,
		"MediumPurple3": 97,
		"MediumPurple3": 98,
		"SlateBlue1": 99,
		"Yellow4": 100,
		"Wheat4": 101,
		"Grey53": 102,
		"LightSlateGrey": 103,
		"MediumPurple": 104,
		"LightSlateBlue": 105,
		"Yellow4": 106,
		"DarkOliveGreen3": 107,
		"DarkSeaGreen": 108,
		"LightSkyBlue3": 109,
		"LightSkyBlue3": 110,
		"SkyBlue2": 111,
		"Chartreuse2": 112,
		"DarkOliveGreen3": 113,
		"PaleGreen3": 114,
		"DarkSeaGreen3": 115,
		"DarkSlateGray3": 116,
		"SkyBlue1": 117,
		"Chartreuse1": 118,
		"LightGreen": 119,
		"LightGreen": 120,
		"PaleGreen1": 121,
		"Aquamarine1": 122,
		"DarkSlateGray1": 123,
		"Red3": 124,
		"DeepPink4": 125,
		"MediumVioletRed": 126,
		"Magenta3": 127,
		"DarkViolet": 128,
		"Purple": 129,
		"DarkOrange3": 130,
		"IndianRed": 131,
		"HotPink3": 132,
		"MediumOrchid3": 133,
		"MediumOrchid": 134,
		"MediumPurple2": 135,
		"DarkGoldenrod": 136,
		"LightSalmon3": 137,
		"RosyBrown": 138,
		"Grey63": 139,
		"MediumPurple2": 140,
		"MediumPurple1": 141,
		"Gold3": 142,
		"DarkKhaki": 143,
		"NavajoWhite3": 144,
		"Grey69": 145,
		"LightSteelBlue3": 146,
		"LightSteelBlue": 147,
		"Yellow3": 148,
		"DarkOliveGreen3": 149,
		"DarkSeaGreen3": 150,
		"DarkSeaGreen2": 151,
		"LightCyan3": 152,
		"LightSkyBlue1": 153,
		"GreenYellow": 154,
		"DarkOliveGreen2": 155,
		"PaleGreen1": 156,
		"DarkSeaGreen2": 157,
		"DarkSeaGreen1": 158,
		"PaleTurquoise1": 159,
		"Red3": 160,
		"DeepPink3": 161,
		"DeepPink3": 162,
		"Magenta3": 163,
		"Magenta3": 164,
		"Magenta2": 165,
		"DarkOrange3": 166,
		"IndianRed": 167,
		"HotPink3": 168,
		"HotPink2": 169,
		"Orchid": 170,
		"MediumOrchid1": 171,
		"Orange3": 172,
		"LightSalmon3": 173,
		"LightPink3": 174,
		"Pink3": 175,
		"Plum3": 176,
		"Violet": 177,
		"Gold3": 178,
		"LightGoldenrod3": 179,
		"Tan": 180,
		"MistyRose3": 181,
		"Thistle3": 182,
		"Plum2": 183,
		"Yellow3": 184,
		"Khaki3": 185,
		"LightGoldenrod2": 186,
		"LightYellow3": 187,
		"Grey84": 188,
		"LightSteelBlue1": 189,
		"Yellow2": 190,
		"DarkOliveGreen1": 191,
		"DarkOliveGreen1": 192,
		"DarkSeaGreen1": 193,
		"Honeydew2": 194,
		"LightCyan1": 195,
		"Red1": 196,
		"DeepPink2": 197,
		"DeepPink1": 198,
		"DeepPink1": 199,
		"Magenta2": 200,
		"Magenta1": 201,
		"OrangeRed1": 202,
		"IndianRed1": 203,
		"IndianRed1": 204,
		"HotPink": 205,
		"HotPink": 206,
		"MediumOrchid1": 207,
		"DarkOrange": 208,
		"Salmon1": 209,
		"LightCoral": 210,
		"PaleVioletRed1": 211,
		"Orchid2": 212,
		"Orchid1": 213,
		"Orange1": 214,
		"SandyBrown": 215,
		"LightSalmon1": 216,
		"LightPink1": 217,
		"Pink1": 218,
		"Plum1": 219,
		"Gold1": 220,
		"LightGoldenrod2": 221,
		"LightGoldenrod2": 222,
		"NavajoWhite1": 223,
		"MistyRose1": 224,
		"Thistle1": 225,
		"Yellow1": 226,
		"LightGoldenrod1": 227,
		"Khaki1": 228,
		"Wheat1": 229,
		"Cornsilk1": 230,
		"Grey100": 231,
		"Grey3": 232,
		"Grey7": 233,
		"Grey11": 234,
		"Grey15": 235,
		"Grey19": 236,
		"Grey23": 237,
		"Grey27": 238,
		"Grey30": 239,
		"Grey35": 240,
		"Grey39": 241,
		"Grey42": 242,
		"Grey46": 243,
		"Grey50": 244,
		"Grey54": 245,
		"Grey58": 246,
		"Grey62": 247,
		"Grey66": 248,
		"Grey70": 249,
		"Grey74": 250,
		"Grey78": 251,
		"Grey82": 252,
		"Grey85": 253,
		"Grey89": 254,
		"Grey93": 255,

		"x016_Grey0": 16,
		"x017_NavyBlue": 17,
		"x018_DarkBlue": 18,
		"x019_Blue3": 19,
		"x020_Blue3": 20,
		"x021_Blue1": 21,
		"x022_DarkGreen": 22,
		"x023_DeepSkyBlue4": 23,
		"x024_DeepSkyBlue4": 24,
		"x025_DeepSkyBlue4": 25,
		"x026_DodgerBlue3": 26,
		"x027_DodgerBlue2": 27,
		"x028_Green4": 28,
		"x029_SpringGreen4": 29,
		"x030_Turquoise4": 30,
		"x031_DeepSkyBlue3": 31,
		"x032_DeepSkyBlue3": 32,
		"x033_DodgerBlue1": 33,
		"x034_Green3": 34,
		"x035_SpringGreen3": 35,
		"x036_DarkCyan": 36,
		"x037_LightSeaGreen": 37,
		"x038_DeepSkyBlue2": 38,
		"x039_DeepSkyBlue1": 39,
		"x040_Green3": 40,
		"x041_SpringGreen3": 41,
		"x042_SpringGreen2": 42,
		"x043_Cyan3": 43,
		"x044_DarkTurquoise": 44,
		"x045_Turquoise2": 45,
		"x046_Green1": 46,
		"x047_SpringGreen2": 47,
		"x048_SpringGreen1": 48,
		"x049_MediumSpringGreen": 49,
		"x050_Cyan2": 50,
		"x051_Cyan1": 51,
		"x052_DarkRed": 52,
		"x053_DeepPink4": 53,
		"x054_Purple4": 54,
		"x055_Purple4": 55,
		"x056_Purple3": 56,
		"x057_BlueViolet": 57,
		"x058_Orange4": 58,
		"x059_Grey37": 59,
		"x060_MediumPurple4": 60,
		"x061_SlateBlue3": 61,
		"x062_SlateBlue3": 62,
		"x063_RoyalBlue1": 63,
		"x064_Chartreuse4": 64,
		"x065_DarkSeaGreen4": 65,
		"x066_PaleTurquoise4": 66,
		"x067_SteelBlue": 67,
		"x068_SteelBlue3": 68,
		"x069_CornflowerBlue": 69,
		"x070_Chartreuse3": 70,
		"x071_DarkSeaGreen4": 71,
		"x072_CadetBlue": 72,
		"x073_CadetBlue": 73,
		"x074_SkyBlue3": 74,
		"x075_SteelBlue1": 75,
		"x076_Chartreuse3": 76,
		"x077_PaleGreen3": 77,
		"x078_SeaGreen3": 78,
		"x079_Aquamarine3": 79,
		"x080_MediumTurquoise": 80,
		"x081_SteelBlue1": 81,
		"x082_Chartreuse2": 82,
		"x083_SeaGreen2": 83,
		"x084_SeaGreen1": 84,
		"x085_SeaGreen1": 85,
		"x086_Aquamarine1": 86,
		"x087_DarkSlateGray2": 87,
		"x088_DarkRed": 88,
		"x089_DeepPink4": 89,
		"x090_DarkMagenta": 90,
		"x091_DarkMagenta": 91,
		"x092_DarkViolet": 92,
		"x093_Purple": 93,
		"x094_Orange4": 94,
		"x095_LightPink4": 95,
		"x096_Plum4": 96,
		"x097_MediumPurple3": 97,
		"x098_MediumPurple3": 98,
		"x099_SlateBlue1": 99,
		"x100_Yellow4": 100,
		"x101_Wheat4": 101,
		"x102_Grey53": 102,
		"x103_LightSlateGrey": 103,
		"x104_MediumPurple": 104,
		"x105_LightSlateBlue": 105,
		"x106_Yellow4": 106,
		"x107_DarkOliveGreen3": 107,
		"x108_DarkSeaGreen": 108,
		"x109_LightSkyBlue3": 109,
		"x110_LightSkyBlue3": 110,
		"x111_SkyBlue2": 111,
		"x112_Chartreuse2": 112,
		"x113_DarkOliveGreen3": 113,
		"x114_PaleGreen3": 114,
		"x115_DarkSeaGreen3": 115,
		"x116_DarkSlateGray3": 116,
		"x117_SkyBlue1": 117,
		"x118_Chartreuse1": 118,
		"x119_LightGreen": 119,
		"x120_LightGreen": 120,
		"x121_PaleGreen1": 121,
		"x122_Aquamarine1": 122,
		"x123_DarkSlateGray1": 123,
		"x124_Red3": 124,
		"x125_DeepPink4": 125,
		"x126_MediumVioletRed": 126,
		"x127_Magenta3": 127,
		"x128_DarkViolet": 128,
		"x129_Purple": 129,
		"x130_DarkOrange3": 130,
		"x131_IndianRed": 131,
		"x132_HotPink3": 132,
		"x133_MediumOrchid3": 133,
		"x134_MediumOrchid": 134,
		"x135_MediumPurple2": 135,
		"x136_DarkGoldenrod": 136,
		"x137_LightSalmon3": 137,
		"x138_RosyBrown": 138,
		"x139_Grey63": 139,
		"x140_MediumPurple2": 140,
		"x141_MediumPurple1": 141,
		"x142_Gold3": 142,
		"x143_DarkKhaki": 143,
		"x144_NavajoWhite3": 144,
		"x145_Grey69": 145,
		"x146_LightSteelBlue3": 146,
		"x147_LightSteelBlue": 147,
		"x148_Yellow3": 148,
		"x149_DarkOliveGreen3": 149,
		"x150_DarkSeaGreen3": 150,
		"x151_DarkSeaGreen2": 151,
		"x152_LightCyan3": 152,
		"x153_LightSkyBlue1": 153,
		"x154_GreenYellow": 154,
		"x155_DarkOliveGreen2": 155,
		"x156_PaleGreen1": 156,
		"x157_DarkSeaGreen2": 157,
		"x158_DarkSeaGreen1": 158,
		"x159_PaleTurquoise1": 159,
		"x160_Red3": 160,
		"x161_DeepPink3": 161,
		"x162_DeepPink3": 162,
		"x163_Magenta3": 163,
		"x164_Magenta3": 164,
		"x165_Magenta2": 165,
		"x166_DarkOrange3": 166,
		"x167_IndianRed": 167,
		"x168_HotPink3": 168,
		"x169_HotPink2": 169,
		"x170_Orchid": 170,
		"x171_MediumOrchid1": 171,
		"x172_Orange3": 172,
		"x173_LightSalmon3": 173,
		"x174_LightPink3": 174,
		"x175_Pink3": 175,
		"x176_Plum3": 176,
		"x177_Violet": 177,
		"x178_Gold3": 178,
		"x179_LightGoldenrod3": 179,
		"x180_Tan": 180,
		"x181_MistyRose3": 181,
		"x182_Thistle3": 182,
		"x183_Plum2": 183,
		"x184_Yellow3": 184,
		"x185_Khaki3": 185,
		"x186_LightGoldenrod2": 186,
		"x187_LightYellow3": 187,
		"x188_Grey84": 188,
		"x189_LightSteelBlue1": 189,
		"x190_Yellow2": 190,
		"x191_DarkOliveGreen1": 191,
		"x192_DarkOliveGreen1": 192,
		"x193_DarkSeaGreen1": 193,
		"x194_Honeydew2": 194,
		"x195_LightCyan1": 195,
		"x196_Red1": 196,
		"x197_DeepPink2": 197,
		"x198_DeepPink1": 198,
		"x199_DeepPink1": 199,
		"x200_Magenta2": 200,
		"x201_Magenta1": 201,
		"x202_OrangeRed1": 202,
		"x203_IndianRed1": 203,
		"x204_IndianRed1": 204,
		"x205_HotPink": 205,
		"x206_HotPink": 206,
		"x207_MediumOrchid1": 207,
		"x208_DarkOrange": 208,
		"x209_Salmon1": 209,
		"x210_LightCoral": 210,
		"x211_PaleVioletRed1": 211,
		"x212_Orchid2": 212,
		"x213_Orchid1": 213,
		"x214_Orange1": 214,
		"x215_SandyBrown": 215,
		"x216_LightSalmon1": 216,
		"x217_LightPink1": 217,
		"x218_Pink1": 218,
		"x219_Plum1": 219,
		"x220_Gold1": 220,
		"x221_LightGoldenrod2": 221,
		"x222_LightGoldenrod2": 222,
		"x223_NavajoWhite1": 223,
		"x224_MistyRose1": 224,
		"x225_Thistle1": 225,
		"x226_Yellow1": 226,
		"x227_LightGoldenrod1": 227,
		"x228_Khaki1": 228,
		"x229_Wheat1": 229,
		"x230_Cornsilk1": 230,
		"x231_Grey100": 231,
		"x232_Grey3": 232,
		"x233_Grey7": 233,
		"x234_Grey11": 234,
		"x235_Grey15": 235,
		"x236_Grey19": 236,
		"x237_Grey23": 237,
		"x238_Grey27": 238,
		"x239_Grey30": 239,
		"x240_Grey35": 240,
		"x241_Grey39": 241,
		"x242_Grey42": 242,
		"x243_Grey46": 243,
		"x244_Grey50": 244,
		"x245_Grey54": 245,
		"x246_Grey58": 246,
		"x247_Grey62": 247,
		"x248_Grey66": 248,
		"x249_Grey70": 249,
		"x250_Grey74": 250,
		"x251_Grey78": 251,
		"x252_Grey82": 252,
		"x253_Grey85": 253,
		"x254_Grey89": 254,
		"x255_Grey93": 255
	},
	"gradients": {
		"Green_Olive_Red_Maroon": [
			[2, 3, 9, 1],
			["719e07", "739d06", "759c06", "779c06", "799b06", "7b9a05", "7d9a05", "7f9905", "819805", "839805", "859704", "879704", "899604", "8b9504", "8d9504", "8f9403", "919303", "949303", "969203", "989102", "9a9102", "9c9002", "9e9002", "a08f02", "a28e01", "a48e01", "a68d01", "a88c01", "aa8c01", "ac8b00", "ae8a00", "b08a00", "b28900", "b58900", "b58700", "b68501", "b78302", "b78102", "b87f03", "b97d04", "b97b04", "ba7905", "bb7806", "bb7606", "bc7407", "bd7208", "bd7008", "be6e09", "bf6c0a", "bf6a0a", "c0690b", "c1670c", "c1650c", "c2630d", "c3610e", "c35f0e", "c45d0f", "c55b10", "c55a10", "c65811", "c75612", "c75412", "c85213", "c95014", "c94e14", "ca4c15", "cb4b16", "cb4a16", "cc4917", "cc4818", "cd4719", "cd4719", "ce461a", "ce451b", "cf441c", "cf441c", "d0431d", "d0421e", "d1411f", "d1411f", "d24020", "d23f21", "d33e22", "d33e22", "d43d23", "d43c24", "d53b25", "d53b25", "d63a26", "d63927", "d73828", "d73828", "d83729", "d8362a", "d9352b", "d9352b", "da342c", "da332d", "db322e", "dc322f"]
		],
		"Yellow_Red_Maroon": [
			[3, 9, 1],
			["b58900", "b58700", "b58600", "b68501", "b68401", "b78202", "b78102", "b88003", "b87f03", "b87d03", "b97c04", "b97b04", "ba7a05", "ba7805", "bb7706", "bb7606", "bc7507", "bc7307", "bc7207", "bd7108", "bd7008", "be6e09", "be6d09", "bf6c0a", "bf6b0a", "c06a0b", "c0680b", "c0670b", "c1660c", "c1650c", "c2630d", "c2620d", "c3610e", "c3600e", "c35e0e", "c45d0f", "c45c0f", "c55b10", "c55910", "c65811", "c65711", "c75612", "c75412", "c75312", "c85213", "c85113", "c94f14", "c94e14", "ca4d15", "ca4c15", "cb4b16", "cb4a16", "cb4a17", "cc4917", "cc4918", "cc4818", "cd4819", "cd4719", "cd471a", "ce461a", "ce461b", "ce451b", "cf451c", "cf441c", "cf441d", "d0431d", "d0431e", "d0421e", "d1421f", "d1411f", "d14120", "d24020", "d24021", "d23f21", "d33f22", "d33e22", "d33e23", "d43d23", "d43d24", "d43c24", "d53c25", "d53b25", "d53b26", "d63a26", "d63a27", "d63927", "d73928", "d73828", "d73829", "d83729", "d8372a", "d8362a", "d9362b", "d9352b", "d9352c", "da342c", "da342d", "da332d", "db332e"]
		],
		"Blue_Red": [
			[39, 74, 68, 67, 103, 97, 96, 132, 131, 167, 203, 197],
			["19b4fe", "1bb2fc", "1db1fa", "1faff8", "22aef6", "24adf4", "26abf2", "29aaf0", "2ba9ee", "2da7ec", "30a6ea", "32a5e8", "34a3e6", "36a2e4", "39a0e2", "3b9fe1", "3d9edf", "409cdd", "429bdb", "449ad9", "4798d7", "4997d5", "4b96d3", "4d94d1", "5093cf", "5292cd", "5490cb", "578fc9", "598dc7", "5b8cc6", "5e8bc4", "6089c2", "6288c0", "6487be", "6785bc", "6984ba", "6b83b8", "6e81b6", "7080b4", "727eb2", "757db0", "777cae", "797aac", "7b79ab", "7e78a9", "8076a7", "8275a5", "8574a3", "8772a1", "89719f", "8c709d", "8e6e9b", "906d99", "926b97", "956a95", "976993", "996791", "9c668f", "9e658e", "a0638c", "a3628a", "a56188", "a75f86", "a95e84", "ac5c82", "ae5b80", "b05a7e", "b3587c", "b5577a", "b75678", "ba5476", "bc5374", "be5273", "c05071", "c34f6f", "c54e6d", "c74c6b", "ca4b69", "cc4967", "ce4865", "d14763", "d34561", "d5445f", "d7435d", "da415b", "dc4059", "de3f58", "e13d56", "e33c54", "e53a52", "e83950", "ea384e", "ec364c", "ee354a", "f13448", "f33246", "f53144", "f83042", "fa2e40"]
		]
	}
}
